{
    "page": 1,
    "total_results": 19815,
    "total_pages": 991,
    "results": [
        {
            "vote_count": 472,
            "id": 384018,
            "video": false,
            "vote_average": 6.5,
            "title": "Fast & Furious Presents: Hobbs & Shaw",
            "popularity": 377.858,
            "poster_path": "/keym7MPn1icW1wWfzMnW3HeuzWU.jpg",
            "original_language": "en",
            "original_title": "Fast & Furious Presents: Hobbs & Shaw",
            "genre_ids": [
                28
            ],
            "backdrop_path": "/hpgda6P9GutvdkDX5MUJ92QG9aj.jpg",
            "adult": false,
            "overview": "A spinoff of The Fate of the Furious, focusing on Johnson's US Diplomatic Security Agent Luke Hobbs forming an unlikely alliance with Statham's Deckard Shaw.",
            "release_date": "2019-08-01"
        },
        {
            "vote_count": 1680,
            "id": 420818,
            "video": false,
            "vote_average": 7.2,
            "title": "The Lion King",
            "popularity": 303.864,
            "poster_path": "/2bXbqYdUdNVa8VIWXVfclP2ICtT.jpg",
            "original_language": "en",
            "original_title": "The Lion King",
            "genre_ids": [
                12,
                16,
                10751,
                18,
                28
            ],
            "backdrop_path": "/1TUg5pO1VZ4B0Q1amk3OlXvlpXV.jpg",
            "adult": false,
            "overview": "Simba idolises his father, King Mufasa, and takes to heart his own royal destiny. But not everyone in the kingdom celebrates the new cub's arrival. Scar, Mufasa's brother—and former heir to the throne—has plans of his own. The battle for Pride Rock is ravaged with betrayal, tragedy and drama, ultimately resulting in Simba's exile. With help from a curious pair of newfound friends, Simba will have to figure out how to grow up and take back what is rightfully his.",
            "release_date": "2019-07-12"
        },
        {
            "vote_count": 361,
            "id": 429203,
            "video": false,
            "vote_average": 6.5,
            "title": "The Old Man & the Gun",
            "popularity": 210.143,
            "poster_path": "/a4BfxRK8dBgbQqbRxPs8kmLd8LG.jpg",
            "original_language": "en",
            "original_title": "The Old Man & the Gun",
            "genre_ids": [
                35,
                80,
                18
            ],
            "backdrop_path": "/8bRIfPGDnmWgdy65LO8xtdcFmFP.jpg",
            "adult": false,
            "overview": "The true story of Forrest Tucker, from his audacious escape from San Quentin at the age of 70 to an unprecedented string of heists that confounded authorities and enchanted the public.  Wrapped up in the pursuit are a detective, who becomes captivated with Forrest’s commitment to his craft, and a woman, who loves him in spite of his chosen profession.",
            "release_date": "2018-09-27"
        },
        {
            "vote_count": 111,
            "id": 506574,
            "video": false,
            "vote_average": 8.3,
            "title": "Descendants 3",
            "popularity": 181.492,
            "poster_path": "/7IRy0iHdaS0JI3ng4ZYlk5gLSFn.jpg",
            "original_language": "en",
            "original_title": "Descendants 3",
            "genre_ids": [
                12,
                10751,
                10402
            ],
            "backdrop_path": "/gzdxeOiO76hDoOSKYCxegj7bk4T.jpg",
            "adult": false,
            "overview": "The teenagers of Disney's most infamous villains return to the Isle of the Lost to recruit a new batch of villainous offspring to join them at Auradon Prep.",
            "release_date": "2019-08-09"
        },
        {
            "vote_count": 2586,
            "id": 420817,
            "video": false,
            "vote_average": 7.1,
            "title": "Aladdin",
            "popularity": 179.679,
            "poster_path": "/3iYQTLGoy7QnjcUYRJy4YrAgGvp.jpg",
            "original_language": "en",
            "original_title": "Aladdin",
            "genre_ids": [
                12,
                14,
                10749,
                35,
                10751
            ],
            "backdrop_path": "/v4yVTbbl8dE1UP2dWu5CLyaXOku.jpg",
            "adult": false,
            "overview": "A kindhearted street urchin named Aladdin embarks on a magical adventure after finding a lamp that releases a wisecracking genie while a power-hungry Grand Vizier vies for the same lamp that has the power to make their deepest wishes come true.",
            "release_date": "2019-05-22"
        },
        {
            "vote_count": 39,
            "id": 566555,
            "video": false,
            "vote_average": 5.1,
            "title": "Detective Conan: The Fist of Blue Sapphire",
            "popularity": 175.344,
            "poster_path": "/86Y6qM8zTn3PFVfCm9J98Ph7JEB.jpg",
            "original_language": "ja",
            "original_title": "名探偵コナン 紺青の拳（フィスト）",
            "genre_ids": [
                16,
                28,
                18,
                9648,
                35
            ],
            "backdrop_path": "/wf6VDSi4aFCZfuD8sX8JAKLfJ5m.jpg",
            "adult": false,
            "overview": "23rd movie in the \"Detective Conan\" franchise.",
            "release_date": "2019-04-12"
        },
        {
            "vote_count": 8614,
            "id": 299534,
            "video": false,
            "vote_average": 8.4,
            "title": "Avengers: Endgame",
            "popularity": 164.315,
            "poster_path": "/or06FN3Dka5tukK1e9sl16pB3iy.jpg",
            "original_language": "en",
            "original_title": "Avengers: Endgame",
            "genre_ids": [
                12,
                878,
                28
            ],
            "backdrop_path": "/7RyHsO4yDXtBv1zUU3mTpHeQ0d5.jpg",
            "adult": false,
            "overview": "After the devastating events of Avengers: Infinity War, the universe is in ruins due to the efforts of the Mad Titan, Thanos. With the help of remaining allies, the Avengers must assemble once more in order to undo Thanos' actions and restore order to the universe once and for all, no matter what consequences may be in store.",
            "release_date": "2019-04-24"
        },
        {
            "vote_count": 11,
            "id": 486589,
            "video": false,
            "vote_average": 5.4,
            "title": "Red Shoes and the Seven Dwarfs",
            "popularity": 140.765,
            "poster_path": "/MBiKqTsouYqAACLYNDadsjhhC0.jpg",
            "original_language": "en",
            "original_title": "Red Shoes and the Seven Dwarfs",
            "genre_ids": [
                16,
                10749
            ],
            "backdrop_path": "/bga3i5jcejBekr2FCGJga1fYCh.jpg",
            "adult": false,
            "overview": "Princes who have been turned into Dwarfs seek the red shoes of a lady in order to break the spell, although it will not be easy.",
            "release_date": "2019-07-25"
        },
        {
            "vote_count": 2921,
            "id": 429617,
            "video": false,
            "vote_average": 7.8,
            "title": "Spider-Man: Far from Home",
            "popularity": 130.791,
            "poster_path": "/rjbNpRMoVvqHmhmksbokcyCr7wn.jpg",
            "original_language": "en",
            "original_title": "Spider-Man: Far from Home",
            "genre_ids": [
                28,
                12,
                878
            ],
            "backdrop_path": "/dihW2yTsvQlust7mSuAqJDtqW7k.jpg",
            "adult": false,
            "overview": "Peter Parker and his friends go on a summer trip to Europe. However, they will hardly be able to rest - Peter will have to agree to help Nick Fury uncover the mystery of creatures that cause natural disasters and destruction throughout the continent.",
            "release_date": "2019-06-28"
        },
        {
            "vote_count": 235,
            "id": 466272,
            "video": false,
            "vote_average": 7.6,
            "title": "Once Upon a Time in Hollywood",
            "popularity": 120.014,
            "poster_path": "/8j58iEBw9pOXFD2L0nt0ZXeHviB.jpg",
            "original_language": "en",
            "original_title": "Once Upon a Time in Hollywood",
            "genre_ids": [
                18,
                35,
                28,
                80,
                37
            ],
            "backdrop_path": "/b82nVVhYNRgtsTFV1jkdDwe6LJZ.jpg",
            "adult": false,
            "overview": "A faded television actor and his stunt double strive to achieve fame and success in the film industry during the final years of Hollywood's Golden Age in 1969 Los Angeles.",
            "release_date": "2019-07-25"
        },
        {
            "vote_count": 7852,
            "id": 920,
            "video": false,
            "vote_average": 6.7,
            "title": "Cars",
            "popularity": 117.819,
            "poster_path": "/jpfkzbIXgKZqCZAkEkFH2VYF63s.jpg",
            "original_language": "en",
            "original_title": "Cars",
            "genre_ids": [
                16,
                12,
                35,
                10751
            ],
            "backdrop_path": "/a1MlbLBk5Sy6YvMbSuKfwGlDVlb.jpg",
            "adult": false,
            "overview": "Lightning McQueen, a hotshot rookie race car driven to succeed, discovers that life is about the journey, not the finish line, when he finds himself unexpectedly detoured in the sleepy Route 66 town of Radiator Springs. On route across the country to the big Piston Cup Championship in California to compete against two seasoned pros, McQueen gets to know the town's offbeat characters.",
            "release_date": "2006-06-08"
        },
        {
            "vote_count": 3053,
            "id": 399579,
            "video": false,
            "vote_average": 6.8,
            "title": "Alita: Battle Angel",
            "popularity": 106.747,
            "poster_path": "/xRWht48C2V8XNfzvPehyClOvDni.jpg",
            "original_language": "en",
            "original_title": "Alita: Battle Angel",
            "genre_ids": [
                28,
                878,
                53,
                12
            ],
            "backdrop_path": "/8RKBHHRqOMOLh5qW3sS6TSFTd8h.jpg",
            "adult": false,
            "overview": "When Alita awakens with no memory of who she is in a future world she does not recognize, she is taken in by Ido, a compassionate doctor who realizes that somewhere in this abandoned cyborg shell is the heart and soul of a young woman with an extraordinary past.",
            "release_date": "2019-01-31"
        },
        {
            "vote_count": 494,
            "id": 531309,
            "video": false,
            "vote_average": 5.7,
            "title": "Brightburn",
            "popularity": 100.569,
            "poster_path": "/sJWwkYc9ajwnPRSkqj8Aue5JbKz.jpg",
            "original_language": "en",
            "original_title": "Brightburn",
            "genre_ids": [
                27,
                878,
                53
            ],
            "backdrop_path": "/uHEI6v8ApQusjbaRZ8o7WcLYeWb.jpg",
            "adult": false,
            "overview": "What if a child from another world crash-landed on Earth, but instead of becoming a hero to mankind, he proved to be something far more sinister?",
            "release_date": "2019-05-09"
        },
        {
            "vote_count": 2004,
            "id": 447404,
            "video": false,
            "vote_average": 7,
            "title": "Pokémon Detective Pikachu",
            "popularity": 93.532,
            "poster_path": "/wgQ7APnFpf1TuviKHXeEe3KnsTV.jpg",
            "original_language": "en",
            "original_title": "Pokémon Detective Pikachu",
            "genre_ids": [
                28,
                12,
                14
            ],
            "backdrop_path": "/nDP33LmQwNsnPv29GQazz59HjJI.jpg",
            "adult": false,
            "overview": "In a world where people collect pocket-size monsters (Pokémon) to do battle, a boy comes across an intelligent monster who seeks to be a detective.",
            "release_date": "2019-05-03"
        },
        {
            "vote_count": 3,
            "id": 577970,
            "video": false,
            "vote_average": 6.5,
            "title": "Dilan 1991",
            "popularity": 90.291,
            "poster_path": "/gZX9F8Q9QUAKAsGAotlH1fVwHFq.jpg",
            "original_language": "id",
            "original_title": "Dilan 1991",
            "genre_ids": [
                10749,
                18
            ],
            "backdrop_path": "/6kFFYxGNi0sRbjKGIHn2Wev1pnb.jpg",
            "adult": false,
            "overview": "Dilan & Milea are now dating. But as time goes by, Dilan has to choose between his motorcycle club or Milea.",
            "release_date": "2019-02-28"
        },
        {
            "vote_count": 6780,
            "id": 299537,
            "video": false,
            "vote_average": 7,
            "title": "Captain Marvel",
            "popularity": 81.966,
            "poster_path": "/AtsgWhDnHTq68L0lLsUrCnM7TjG.jpg",
            "original_language": "en",
            "original_title": "Captain Marvel",
            "genre_ids": [
                28,
                12,
                878
            ],
            "backdrop_path": "/w2PMyoyLU22YvrGK3smVM9fW1jj.jpg",
            "adult": false,
            "overview": "The story follows Carol Danvers as she becomes one of the universe’s most powerful heroes when Earth is caught in the middle of a galactic war between two alien races. Set in the 1990s, Captain Marvel is an all-new adventure from a previously unseen period in the history of the Marvel Cinematic Universe.",
            "release_date": "2019-03-06"
        },
        {
            "vote_count": 1818,
            "id": 458156,
            "video": false,
            "vote_average": 7.1,
            "title": "John Wick: Chapter 3 – Parabellum",
            "popularity": 80.732,
            "poster_path": "/ziEuG1essDuWuC5lpWUaw1uXY2O.jpg",
            "original_language": "en",
            "original_title": "John Wick: Chapter 3 – Parabellum",
            "genre_ids": [
                80,
                28,
                53
            ],
            "backdrop_path": "/vVpEOvdxVBP2aV166j5Xlvb5Cdc.jpg",
            "adult": false,
            "overview": "Super-assassin John Wick returns with a $14 million price tag on his head and an army of bounty-hunting killers on his trail. After killing a member of the shadowy international assassin’s guild, the High Table, John Wick is excommunicado, but the world’s most ruthless hit men and women await his every turn.",
            "release_date": "2019-05-15"
        },
        {
            "vote_count": 14780,
            "id": 299536,
            "video": false,
            "vote_average": 8.3,
            "title": "Avengers: Infinity War",
            "popularity": 78.252,
            "poster_path": "/7WsyChQLEftFiDOVTGkv3hFpyyt.jpg",
            "original_language": "en",
            "original_title": "Avengers: Infinity War",
            "genre_ids": [
                12,
                28,
                878
            ],
            "backdrop_path": "/bOGkgRGdhrBYJSLpXaxhXVstddV.jpg",
            "adult": false,
            "overview": "As the Avengers and their allies have continued to protect the world from threats too large for any one hero to handle, a new danger has emerged from the cosmic shadows: Thanos. A despot of intergalactic infamy, his goal is to collect all six Infinity Stones, artifacts of unimaginable power, and use them to inflict his twisted will on all of reality. Everything the Avengers have fought for has led up to this moment - the fate of Earth and existence itself has never been more uncertain.",
            "release_date": "2018-04-25"
        },
        {
            "vote_count": 15,
            "id": 499701,
            "video": false,
            "vote_average": 5.9,
            "title": "Dora and the Lost City of Gold",
            "popularity": 77.945,
            "poster_path": "/xvYCZ740XvngXK0FNeSNVTJJJ5v.jpg",
            "original_language": "en",
            "original_title": "Dora and the Lost City of Gold",
            "genre_ids": [
                12,
                35,
                10751
            ],
            "backdrop_path": "/843PwG97xLcz7TUW8tKDNrOc2sj.jpg",
            "adult": false,
            "overview": "Dora, a girl who has spent most of her life exploring the jungle with her parents, now must navigate her most dangerous adventure yet: high school. Always the explorer, Dora quickly finds herself leading Boots (her best friend, a monkey), Diego, and a rag tag group of teens on an adventure to save her parents and solve the impossible mystery behind a lost Inca civilization.",
            "release_date": "2019-08-08"
        },
        {
            "vote_count": 2894,
            "id": 287947,
            "video": false,
            "vote_average": 7,
            "title": "Shazam!",
            "popularity": 76.837,
            "poster_path": "/xnopI5Xtky18MPhK40cZAGAOVeV.jpg",
            "original_language": "en",
            "original_title": "Shazam!",
            "genre_ids": [
                28,
                35,
                14
            ],
            "backdrop_path": "/OIGX2lm5tmlCKvZUghtwHzoxxO.jpg",
            "adult": false,
            "overview": "A boy is given the ability to become an adult superhero in times of need with a single magic word.",
            "release_date": "2019-03-23"
        }
    ]
}